{
    "name": "Sdnlist",
    "fields": [
        {
            "fieldName": "sdnName",
            "fieldType": "String"
        }
    ],
    "relationships": [],
    "changelogDate": "20180829082128",
    "entityTableName": "tb_sdnlist",
    "dto": "mapstruct",
    "pagination": "pagination",
    "service": "serviceImpl",
    "jpaMetamodelFiltering": false,
    "fluentMethods": true,
    "clientRootFolder": "",
    "applications": "*"
}